#######################################
# Classes (KEYWORD1)
#######################################
L298	KEYWORD1
#######################################
# Metodos e funcoes (KEYWORD2)
#######################################
andar	KEYWORD2
virar	KEYWORD2
rodar	KEYWORD2
parar	KEYWORD2
dis_encoder KEYWORD2
dis_sensor  KEYWORD2
######################################
# Constantes (LITERAL1)
#######################################
